Sistemas Digitais/somadores/simulation/qsim/somadorCompleto.msim.vcd
$comment
	File created using the following command:
		vcd file somadorCompleto.msim.vcd -direction
$end
$date
	Mon Jul 23 23:59:23 2018
$end
$version
	ModelSim Version 10.1d
$end
$timescale
	1ps
$end
$scope module maquinaMoore2_vlg_vec_tst $end
$var reg 1 ! CLOCK $end
$var reg 1 " RESET $end
$var reg 1 # W $end
$var wire 1 $ Z $end
$var wire 1 % sampler $end
$scope module i1 $end
$var wire 1 & gnd $end
$var wire 1 ' vcc $end
$var wire 1 ( unknown $end
$var tri1 1 ) devclrn $end
$var tri1 1 * devpor $end
$var tri1 1 + devoe $end
$var wire 1 , y.A~regout $end
$var wire 1 - Selector0~0_combout $end
$var wire 1 . Selector0~1_combout $end
$var wire 1 / CLOCK~combout $end
$var wire 1 0 CLOCK~clkctrl_outclk $end
$var wire 1 1 W~combout $end
$var wire 1 2 y~11_combout $end
$var wire 1 3 RESET~combout $end
$var wire 1 4 RESET~clkctrl_outclk $end
$var wire 1 5 y.B~regout $end
$var wire 1 6 Selector1~0_combout $end
$var wire 1 7 y.C~regout $end
$var wire 1 8 y~10_combout $end
$var wire 1 9 y.D~regout $end
$var wire 1 : y~9_combout $end
$var wire 1 ; y.E~regout $end
$upscope $end
$upscope $end
$enddefinitions $end
#0
$dumpvars
0!
1"
0#
0$
x%
0&
1'
x(
1)
1*
1+
0,
0-
0.
0/
00
01
02
13
14
05
06
07
08
09
0:
0;
$end
#20000
1!
1/
10
0%
#40000
0!
0/
00
1%
#60000
1#
1!
11
1/
10
0%
12
1.
#80000
0#
0!
01
0/
00
1%
02
0.
#100000
1!
1/
10
0%
#120000
0!
0/
00
1%
#140000
1#
1!
11
1/
10
0%
12
1.
#160000
0#
0!
01
0/
00
1%
02
0.
#180000
1#
1!
11
1/
10
0%
12
1.
#200000
0#
0!
01
0/
00
1%
02
0.
#220000
1!
1/
10
0%
#240000
1#
0!
11
0/
00
1%
12
1.
#260000
0#
1!
01
1/
10
0%
02
0.
15
1,
1-
1.
0.
#280000
1#
0!
11
0/
00
1%
16
0-
1.
#300000
1!
1/
10
0%
17
05
#320000
0#
0!
01
0/
00
1%
18
06
#340000
1!
1/
10
0%
19
07
1-
08
0.
#360000
1#
0!
11
0/
00
1%
1:
0-
1.
#380000
1!
1/
10
0%
1;
09
1-
0:
1$
0.
#400000
0!
0/
00
1%
#420000
1!
1/
10
0%
0;
0,
0-
12
0$
1.
#440000
0#
0!
01
0/
00
1%
02
0.
#460000
1!
1/
10
0%
#480000
1#
0!
11
0/
00
1%
12
1.
#500000
0#
1!
01
1/
10
0%
02
0.
15
1,
1-
1.
0.
#520000
0!
0/
00
1%
#540000
1#
1!
11
1/
10
0%
16
0-
1.
05
0,
06
12
#560000
0#
0!
01
0/
00
1%
02
0.
#580000
1!
1/
10
0%
#600000
0!
0/
00
1%
#620000
1#
1!
11
1/
10
0%
12
1.
#640000
0!
0/
00
1%
#660000
1!
1/
10
0%
15
1,
16
02
#680000
0!
0/
00
1%
#700000
1!
1/
10
0%
17
05
#720000
0!
0/
00
1%
#740000
0#
1!
01
1/
10
0%
18
06
#760000
0!
0/
00
1%
#780000
1#
1!
11
1/
10
0%
08
16
19
07
1:
06
#800000
0!
0/
00
1%
#820000
1!
1/
10
0%
1;
09
1-
0:
1$
0.
#840000
0!
0/
00
1%
#860000
0#
1!
01
1/
10
0%
16
0-
1.
0;
0,
06
0.
0$
#880000
0!
0/
00
1%
#900000
1#
1!
11
1/
10
0%
12
1.
#920000
0!
0/
00
1%
#940000
0#
1!
01
1/
10
0%
02
0.
15
1,
1-
1.
0.
#960000
0!
0/
00
1%
#980000
1!
1/
10
0%
05
0,
0-
